[{
  "GroupID": "personal",
  "ID": "age",
  "Text": "What is {noun}{plural} age?",
  "Type": "int",
  "Options": {
    "days": "days"
  }
},
  {
    "GroupID": "8",
    "ID": "urinating",
    "Text": "When was the last time {noun} urinated?",
    "Type": "mcq",
    "Options": {
      "less": "6-12 hours ago",
      "much_less": "More than 12 hours ago",
      "normal": "Within last 6 hours"
    }
  },
  {
    "GroupID": "pathology",
    "ID": "abdominal_pain_detail",
    "Text": "How severe is {noun}{plural} abdominal or stomach pain?",
    "Type": "mcq",
    "Options": {
      "mild": "Mild",
      "moderate": "Moderate",
      "severe": "Severe"
    }
  },
  {
    "GroupID": "pathology",
    "ID": "abdominal_pain",
    "Text": "{verb} {noun} have abdominal or stomach pain?",
    "Type": "bool",
    "Options": {
      "yes": "Yes",
      "no": "No",
      "unknown": "Unknown"
    }
  },
  {
    "GroupID": "pathology",
    "ID": "ante_post_natal_current_pain",
    "Text": "{passive} {noun} recently experience of any of the following?",
    "Type": "mcq",
    "Options": {
      "burning_during_urination": "Burning during urination",
      "none": "None of the below",
      "sexual_partner_discharge_pain_urination": "Sexual partner with discharge or pain with urination",
      "side_back_pain": "Side or back pain",
      "pain_during_sex": "Pain during sex"
    }
  },
  {
    "GroupID": "pathology",
    "ID": "baby_movement_concern",
    "Text": "Are you concerned about the movement of {noun} over the last 12 hours?",
    "Type": "bool",
    "Options": {
      "yes": "Yes",
      "no": "No",
      "unknown": "Unknown"
    }
  },
  {
    "GroupID": "pathology",
    "ID": "baby_movement",
    "Text": "Over the last 12 hours is {noun} moving",
    "Type": "mcq",
    "Options": {
      "less": "Less",
      "more": "More",
      "much_less": "No fetal movement"
    }
  },
  {
    "GroupID": "pathology",
    "ID": "blurred_vision",
    "Text": "{verb} {noun} recently have a change in how well {noun} see? Are things blurred?",
    "Type": "bool",
    "Options": {
      "yes": "Yes",
      "no": "No",
      "unknown": "Unknown"
    }
  },
  {
    "GroupID": "pathology",
    "ID": "breast_red_swelling",
    "Text": "Do you have any of the following on your breast or nipples?",
    "Type": "mcq",
    "Options": {
      "none": "None of the below",
      "pain": "Pain",
      "redness": "Redness",
      "swelling": "Swelling"
    }
  },
  {
    "GroupID": "symptoms",
    "ID": "breathing_upper_body_pain",
    "Text": "Are you experiencing any of the following?",
    "Type": "mcq",
    "Options": {
      "breathing_fast": "Breathing fast or difficulty breathing",
      "chest_pain": "Chest pain",
      "none": "None of the below",
      "shortness_of_breath": "Shortness of breath when resting",
      "stiff_neck": "Stiff neck"
    }
  },
  {
    "GroupID": "2",
    "ID": "breathing",
    "Text": "Is {noun} having trouble breathing?",
    "Type": "mcq",
    "Options": {
      "more": "Breathing fast",
      "normal": "No,breathing normally",
      "much_more": "Struggling or working hard to breathe"
    }
  },
  {
    "GroupID": "18",
    "ID": "capillary_refill",
    "Text": "What is the capillary refill time?",
    "Type": "mcq",
    "Options": {
      "less": "3-5 seconds",
      "much_less": "More than 5 seconds",
      "normal": "Less than 2 seconds"
    }
  },
  {
    "GroupID": "21",
    "ID": "chest_indrawing",
    "Text": "Do you see {noun}{plural} chest move down when they breathe in?",
    "Type": "bool",
    "Options": {
      "yes": "Yes",
      "no": "No",
      "unknown": "Unknown"
    }
  },
  {
    "GroupID": "pathology",
    "ID": "chest_retractions",
    "Text": "Do you see {noun}{plural} ribs when it breathes in?",
    "Type": "bool",
    "Options": {
      "yes": "Yes",
      "no": "No",
      "unknown": "Unknown"
    }
  },
  {
    "GroupID": "pathology",
    "ID": "child_current_history_1",
    "Text": "{verb} {noun} currently have any of the following?",
    "Type": "mcq",
    "Options": {
      "bloody_stools": "Bloody stools",
      "ear_pain": "Ear pain or drainage",
      "headache": "Headache",
      "none": "None of the below",
      "seizure_fit": "Seizure/fit"
    }
  },
  {
    "GroupID": "pathology",
    "ID": "child_current_history_2",
    "Text": "{verb} {noun} currently have any of the following?",
    "Type": "mcq",
    "Options": {
      "body_pain": "Body pain / aching",
      "cold_chills": "Feeling cold - shaking chills",
      "foul_smelling_urine": "Foul smelling urine",
      "none": "None of the below",
      "pain_when_urinating": "Pain when urinating",
      "tired": "Tired / less active"
    }
  },
  {
    "GroupID": "pathology",
    "ID": "encounter_patient_outcome",
    "Text": "{noun} Outcome",
    "Type": "mcq",
    "Options": {
      "less": "{noun} is better",
      "normal": "{noun} is the same",
      "more": "{noun} is worse"
    }
  },
  {
    "GroupID": "pathology",
    "ID": "control_of_bowels",
    "Text": "Can you control your bowel (or toilet) movements?",
    "Type": "bool",
    "Options": {
      "yes": "Yes",
      "no": "No",
      "unknown": "Unknown"
    }
  },
  {
    "GroupID": "symptoms",
    "ID": "coughing_detail",
    "Text": "{verb} {noun} have any of the following with the cough?",
    "Type": "mcq",
    "Options": {
      "blood": "Blood",
      "green_yellow_mucus": "Green or yellow mucus",
      "none": "None of the below",
      "wheezing": "Wheezing",
      "worse_at_night": "Worse at night"
    }
  },
  {
    "GroupID": "3",
    "ID": "coughing",
    "Text": "{verb} {noun} have a cough?",
    "Type": "mcq",
    "Options": {
      "mild": "Cough less than 14 days",
      "moderate": "Cough more than 14 days",
      "none": "No cough"
    }
  },
  {
    "GroupID": "pathology",
    "ID": "delivery_date",
    "Text": "When did {noun} give birth?",
    "Type": "int",
    "Options": {
      "days": "days"
    }
  },
  {
    "GroupID": "5",
    "ID": "diarrhea",
    "Text": "Has there been diarrhea (or loose stools) since yesterday?",
    "Type": "mcq",
    "Options": {
      "mild": "1-5 times",
      "moderate": "6-10 times",
      "none": "No diarrhea",
      "severe": "More than 10 times"
    }
  },
  {
    "GroupID": "16",
    "ID": "disposition",
    "Text": "What is {noun}{plural} current disposition?",
    "Type": "mcq",
    "Options": {
      "calm": "Awake and not irritable",
      "irritable": "Awake and irritable",
      "sleeping": "Sleeping"
    }
  },
  {
    "GroupID": "6",
    "ID": "drinking",
    "Text": "Drinking or Fluid Intake",
    "Type": "mcq",
    "Options": {
      "less": "Less",
      "more": "More",
      "much_less": "Not drinking or taking fluids",
      "normal": "Normal"
    }
  },
  {
    "GroupID": "pathology",
    "ID": "fast_heartbeat",
    "Text": "Does it feel like {noun}{plural} heart is beating fast?",
    "Type": "bool",
    "Options": {
      "yes": "Yes",
      "no": "No",
      "unknown": "Unknown"
    }
  },
  {
    "GroupID": "pathology",
    "ID": "feeling_sick",
    "Text": "{verb} {noun} feel sick?",
    "Type": "bool",
    "Options": {
      "yes": "Yes",
      "no": "No",
      "unknown": "Unknown"
    }
  },
  {
    "GroupID": "personal",
    "ID": "gender",
    "Text": "Is {noun} a boy or a girl?",
    "Type": "bool",
    "Options": {
      "female": "Girl",
      "male": "Boy"
    }
  },
  {
    "GroupID": "22",
    "ID": "head_bobbing",
    "Text": "{verb} {noun} show head bobbing?",
    "Type": "bool",
    "Options": {
      "yes": "Yes",
      "no": "No",
      "unknown": "Unknown"
    }
  },
  {
    "GroupID": "symptoms",
    "ID": "headache",
    "Text": "{verb} {noun} have a headache?",
    "Type": "mcq",
    "Options": {
      "mild": "Mild",
      "none": "None",
      "severe": "Severe"
    }
  },
  {
    "GroupID": "12",
    "ID": "heart_rate",
    "Text": "What is {noun}{plural} heart rate in beats per minute?",
    "Type": "int",
    "Options": {
      "bpm": "bpm"
    }
  },
  {
    "GroupID": "pathology",
    "ID": "hungry_after_feeding",
    "Text": "Is {noun} still hungry after feeding or eating?",
    "Type": "bool",
    "Options": {
      "yes": "Yes",
      "no": "No",
      "unknown": "Unknown"
    }
  },
  {
    "GroupID": "pathology",
    "ID": "jaundice",
    "Text": "Do {noun}{plural} eyes and/or skin look yellow?",
    "Type": "bool",
    "Options": {
      "yes": "Yes",
      "no": "No",
      "unknown": "Unknown"
    }
  },
  {
    "GroupID": "pathology",
    "ID": "language",
    "Text": "Which language do you speak?",
    "Type": "mcq",
    "Options": {
      "en-US": "I speak English",
      "en-ZA": "I speak English",
      "zu": "Ngikhuluma isiZulu",
      "ar-EG": "Ø£Ù†Ø§ Ø£ØªØ­Ø¯Ø« Ø§Ù„Ø¹Ø±Ø¨ÙŠØ©",
      "id": "Saya berbicara bahasa Indonesia"
    }
  },
  {
    "GroupID": "pathology",
    "ID": "last_menstrual_period",
    "Text": "What was the first day of your last period?",
    "Type": "int",
    "Options": {
      "days": "days"
    }
  },
  {
    "GroupID": "19",
    "ID": "latching",
    "Text": "How has {noun} been latching or sucking in the last 24 hours?",
    "Type": "mcq",
    "Options": {
      "less": "Not very well",
      "much_less": "Will not latch or suck",
      "normal": "Latching or sucking well"
    }
  },
  {
    "GroupID": "pathology",
    "ID": "lower_leg_red_swelling",
    "Text": "Do you have any of the following on your lower leg or calf?",
    "Type": "mcq",
    "Options": {
      "none": "None of the below",
      "pain": "Pain",
      "redness": "Redness",
      "swelling": "Swelling"
    }
  },
  {
    "GroupID": "15",
    "ID": "muac",
    "Text": "What is {noun}{plural} MUAC reading?",
    "Type": "mcq",
    "Options": {
      "green": "Green",
      "orange": "Orange",
      "red": "Red",
      "yellow": "Yellow"
    }
  },
  {
    "GroupID": "personal",
    "ID": "name",
    "Text": "What is your name?",
    "Type": "string",
    "Options": {}
  },
  {
    "GroupID": "28",
    "ID": "nasal_discharge",
    "Text": "{verb} {noun} have nasal discharge?",
    "Type": "bool",
    "Options": {
      "yes": "Yes",
      "no": "No",
      "unknown": "Unknown"
    }
  },
  {
    "GroupID": "pathology",
    "ID": "nasal_discharge_child",
    "Text": "{verb} {noun} have nasal discharge?",
    "Type": "mcq",
    "Options": {
      "none": "No",
      "mild": "Yes",
      "it's clear": "moderate",
      "Yes": "it's yellow-green"
    }
  },
  {
    "GroupID": "20",
    "ID": "nasal_flaring_or_retractions",
    "Text": "{verb} {noun} have nasal flaring or retractions when breathing in?",
    "Type": "bool",
    "Options": {
      "yes": "Yes",
      "no": "No",
      "unknown": "Unknown"
    }
  },
  {
    "GroupID": "symptoms",
    "ID": "nasal_flaring",
    "Text": "{verb} the opening of {noun}{plural} nose open and close when breathing?",
    "Type": "bool",
    "Options": {
      "yes": "Yes",
      "no": "No",
      "unknown": "Unknown"
    }
  },
  {
    "GroupID": "pathology",
    "ID": "newborn_feeding",
    "Text": "How often is {noun} feeding?",
    "Type": "mcq",
    "Options": {
      "less": "More than every 4-6 hours",
      "much_less": "More than 6 hours",
      "normal": "Every 3-4 hours"
    }
  },
  {
    "GroupID": "pathology",
    "ID": "newborn_movement",
    "Text": "Have there been changes in {noun}{plural} movement or activity in the last 24 hours?",
    "Type": "mcq",
    "Options": {
      "less": "Less active than usual",
      "more": "More active than usual",
      "normal": "No changes"
    }
  },
  {
    "GroupID": "14",
    "ID": "oxygen_saturation",
    "Text": "What is the level of oxygen saturation in {noun}{plural} blood?",
    "Type": "float",
    "Options": {
      "percent": "percent"
    }
  },
  {
    "GroupID": "26",
    "ID": "pain_when_moving_neck",
    "Text": "{verb} {noun} have pain when moving his/her neck?",
    "Type": "bool",
    "Options": {
      "yes": "Yes",
      "no": "No",
      "unknown": "Unknown"
    }
  },
  {
    "GroupID": "25",
    "ID": "pale_eyelids",
    "Text": "{verb} {noun} have pale eyelids?",
    "Type": "bool",
    "Options": {
      "yes": "Yes",
      "no": "No",
      "unknown": "Unknown"
    }
  },
  {
    "GroupID": "pathology",
    "ID": "pale_palms",
    "Text": "{verb} {noun} have pale palms?",
    "Type": "bool",
    "Options": {
      "yes": "Yes",
      "no": "No",
      "unknown": "Unknown"
    }
  },
  {
    "GroupID": "pathology",
    "ID": "pregnancy_current_history_1",
    "Text": "{passive} {noun} recently experience of any of the following?",
    "Type": "mcq",
    "Options": {
      "fits_seizures": "Fits / seizures",
      "none": "None of the below",
      "skin_blisters": "Skin blisters",
      "very_tired": "Very tired â€” too weak to get out of bed",
      "vomiting_nausea": "Frequent or persistent vomiting and nausea"
    }
  },
  {
    "GroupID": "pathology",
    "ID": "pregnancy_current_history_2",
    "Text": "{passive} {noun} recently experience of any of the following?",
    "Type": "mcq",
    "Options": {
      "chronic_diarrhea": "Chronic diarrhea for more than 3 weeks",
      "decreased_weight_gain": "Decreased or no weight gain",
      "itching_rash": "General itching with rash",
      "mouth_ulcers": "Mouth or lip ulcers / sores",
      "none": "None of the below"
    }
  },
  {
    "GroupID": "pathology",
    "ID": "pregnancy_past_history",
    "Text": "{verb} {noun} have a history of any of the following?",
    "Type": "mcq",
    "Options": {
      "chronic_illnesses": "Chronic illnesses",
      "multiple_pregnancies": "Multiple pregnancies",
      "none": "None of the below",
      "pre_eclampsia": "Pre-eclampsia (or high blood pressure during pregnancy)"
    }
  },
  {
    "GroupID": "30",
    "ID": "rash",
    "Text": "{verb} {noun} have a rash with red spots?",
    "Type": "bool",
    "Options": {
      "yes": "Yes",
      "no": "No",
      "unknown": "Unknown"
    }
  },
  {
    "GroupID": "pathology",
    "ID": "recent_fever",
    "Text": "{passive} {noun} have a fever of more than 38Â°C or 100.5Â°F in the last 24 hours?",
    "Type": "bool",
    "Options": {
      "yes": "Yes",
      "no": "No",
      "unknown": "Unknown"
    }
  },
  {
    "GroupID": "29",
    "ID": "red_eyes",
    "Text": "{verb} {noun} have red eyes or discharge from his/her eyes?",
    "Type": "bool",
    "Options": {
      "yes": "Yes",
      "no": "No",
      "unknown": "Unknown"
    }
  },
  {
    "GroupID": "13",
    "ID": "respiratory_rate",
    "Text": "How fast is {noun} breathing?",
    "Type": "int",
    "Options": {
      "bpm": "bpm"
    }
  },
  {
    "GroupID": "pathology",
    "ID": "sad_negative_feelings",
    "Text": "Do you feel any of the following?",
    "Type": "mcq",
    "Options": {
      "difficulty_activities": "Difficulty carrying out normal activities or work",
      "harm": "Want to do harm to yourself, {noun}, or others",
      "low_interest": "Low interest in or pleasure from fun activities",
      "negative": "Negative about yourself and/or {noun}",
      "none": "None of the below",
      "sad": "Sad, negative, irritable or anxious"
    }
  },
  {
    "GroupID": "27",
    "ID": "skin_infection",
    "Text": "{verb} {noun}{plural} body have any of the following?",
    "Type": "mcq",
    "Options": {
      "discharge": "Discharge / Drainage",
      "irritation": "Skin Infection",
      "none": "None",
      "pain": "Pain",
      "red": "Red",
      "swelling": "Swelling",
      "warm": "Warm"
    }
  },
  {
    "GroupID": "17",
    "ID": "skin_turgor",
    "Text": "How fast does {noun}{plural} skin return when pinched? Pick the one that is closest to what you are seeing",
    "Type": "mcq",
    "Options": {
      "less": "Slow",
      "much_less": "Very slow",
      "normal": "Rapidly"
    }
  },
  {
    "GroupID": "9",
    "ID": "sleeping",
    "Text": "Have there been changes in {noun}{plural} sleep in the last 24 hours?",
    "Type": "mcq",
    "Options": {
      "less": "Sleeping less than usual",
      "more": "Sleeping more than usual",
      "normal": "No changes"
    }
  },
  {
    "GroupID": "pathology",
    "ID": "stool",
    "Text": "What does {noun}{plural} stool look like?",
    "Type": "mcq",
    "Options": {
      "bloody": "Bloody",
      "green_yellow": "Green or yellow with mucus",
      "normal": "Normal",
      "watery": "Watery",
      "liquid": "or clear"
    }
  },
  {
    "GroupID": "pathology",
    "ID": "swelling_of_extremities",
    "Text": "{passive} {noun} recently have swelling of the fingers, face, feet, or legs?",
    "Type": "bool",
    "Options": {
      "yes": "Yes",
      "no": "No",
      "unknown": "Unknown"
    }
  },
  {
    "GroupID": "24",
    "ID": "swelling_of_the_feet",
    "Text": "{verb} {noun} have swollen feet/pitting edema?",
    "Type": "bool",
    "Options": {
      "yes": "Yes",
      "no": "No",
      "unknown": "Unknown"
    }
  },
  {
    "GroupID": "7",
    "ID": "tears",
    "Text": "The last time {noun} cried did tears come out?",
    "Type": "bool",
    "Options": {
      "yes": "Yes",
      "no": "No",
      "unknown": "Unknown"
    }
  },
  {
    "GroupID": "11",
    "ID": "temperature",
    "Text": "What is {noun}{plural} temperature according to a thermometer?",
    "Type": "float",
    "Options": {
      "celsius": "Celsius",
      "faranheit": "Faranheit"
    }
  },
  {
    "GroupID": "pathology",
    "ID": "throat_pain",
    "Text": "Is {noun} having throat pain?",
    "Type": "bool",
    "Options": {
      "yes": "Yes",
      "no": "No",
      "unknown": "Unknown"
    }
  },
  {
    "GroupID": "pathology",
    "ID": "umbilical_infection",
    "Text": "What does {noun}{plural} umbilical cord look like?",
    "Type": "mcq",
    "Options": {
      "none": "It looks normal â€” none of the below",
      "umbilical_discharge": "There is fluid coming out",
      "umbilical_red": "The cord and the skin around it are red",
      "umbilical_swelling": "It{plural} swollen"
    }
  },
  {
    "GroupID": "pathology",
    "ID": "urine_dribbling",
    "Text": "Are you having trouble controlling your urination? Are you leaking?",
    "Type": "bool",
    "Options": {
      "yes": "Yes",
      "no": "No",
      "unknown": "Unknown"
    }
  },
  {
    "GroupID": "pathology",
    "ID": "uterus_hard_soft",
    "Text": "Does your uterus / womb feel hard or soft?",
    "Type": "mcq",
    "Options": {
      "hard": "Hard",
      "soft": "Soft"
    }
  },
  {
    "GroupID": "4",
    "ID": "vomiting_severity",
    "Text": "How many times has {noun} vomited in the last 24 hours?",
    "Type": "mcq",
    "Options": {
      "none": "No vomiting",
      "mild": "1-5 times",
      "moderate": "6-10 times",
      "severe": "More than 10 times"
    }
  },
  {
    "GroupID": "pathology",
    "ID": "vomiting_detail_child",
    "Text": "What does the vomit look like?",
    "Type": "mcq",
    "Options": {
      "clear": "It's clear",
      "food_liquid": "It looks like food and/or liquid",
      "green_yellow": "It's green or yellow"
    }
  },
  {
    "GroupID": "pathology",
    "ID": "vomiting_detail",
    "Text": "What does the vomit look like?",
    "Type": "mcq",
    "Options": {
      "green_yellow": "It's green or yellow",
      "milk_formula": "It looks like breast milk or formula"
    }
  },
  {
    "GroupID": "pathology",
    "ID": "vomiting",
    "Text": "Has {noun} vomited in the last 24 hours?",
    "Type": "bool",
    "Options": {
      "yes": "Yes",
      "no": "No",
      "unknown": "Unknown"
    }
  },
  {
    "GroupID": "pathology",
    "ID": "wake_to_feed",
    "Text": "{verb} {noun} wake on its own to feed?",
    "Type": "mcq",
    "Options": {
      "less": "Sometimes",
      "much_less": "No",
      "normal": "Yes"
    }
  },
  {
    "GroupID": "pathology",
    "ID": "wakefulness",
    "Text": "{verb} {noun} wake up?",
    "Type": "mcq",
    "Options": {
      "mild": "Only if I make a noise",
      "moderate": "Only if I touch them",
      "none": "On its own",
      "severe": "Will not wake up if I make noise or touch"
    }
  },
  {
    "GroupID": "10",
    "ID": "weight",
    "Text": "What is {noun}{plural} weight?",
    "Type": "float",
    "Options": {
      "kg": "Kilogram",
      "pounds": "lbs"
    }
  },

  {
    "GroupID": "pathology",
    "ID": "wet_diapers",
    "Text": "When was the last time {noun} urinated?",
    "Type": "mcq",
    "Options": {
      "less": "6-12 hours ago",
      "much_less": "More than 12 hours ago",
      "normal": "Within the last 6 hours"
    }
  },
  {
    "GroupID": "23",
    "ID": "wheezing",
    "Text": "Is {noun} wheezing when breathing out?",
    "Type": "bool",
    "Options": {
      "yes": "Yes",
      "no": "No",
      "unknown": "Unknown"
    }
  },
  {
    "GroupID": "1",
    "ID": "why_is_the_child_being_seen",
    "Text": "Why is {noun} being seen today?",
    "Type": "mcq",
    "Options": {
      "aching": "Body Pain/Aching",
      "bloody_stools": "Bloody stools",
      "cold_chills": "Cold Chills",
      "ear_pain": "Ear pain or drainage",
      "fever": "Fever",
      "foul_smelling_urine": "Foul smelling urine",
      "headache": "Headache",
      "none": "None",
      "pain_when_urinating": "Pain when urinating",
      "seizure_or_fit": "Seizure or Fit",
      "sick": "Concerned child is very sick"
    }
  },
  {
    "GroupID": "pathology",
    "ID": "oral_problems",
    "Text": "Do you see any of the following in {noun}{plural} mouth?",
    "Type": "mcq",
    "Options": {
      "loose_teeth": "Painful or Loose Teeth",
      "bleeding_gums": "Bleeding Gums",
      "foul_breath": "Foul Breath",
      "none": "None",
      "sores": "Sores on tongue",
      "white_patches": "White patches in mouth"
    }
  },
  {
    "GroupID": "pathology",
    "ID": "genital_problems",
    "Text": "Do you see any of the following around {noun}{plural} genitals?",
    "Type": "mcq",
    "Options": {
      "sores": "Sores",
      "discharge": "Discharge",
      "swelling": "Swelling",
      "pain": "Pain",
      "none": "None"
    }
  },
  {
    "GroupID": "pathology",
    "ID": "physical_problems",
    "Text": "Do you notice any issues with {noun}{plural} physique?",
    "Type": "mcq",
    "Options": {
      "limited_mobility": "Limited Mobility",
      "bruising": "Swelling and or bruising (with no history of trauma)",
      "none": "None",
      "nightmares": "Nightmares and/or bedwetting",
      "body_pain": "Difficulty walking",
      "sitting": "pain when going to bathroom",
      "behavior": "Sudden change in behavior"
    }
  },
  {
    "GroupID": "pathology",
    "ID": "swollen_abdomen",
    "Text": "{verb} {noun} have a swollen abdomen?",
    "Type": "bool",
    "Options": {
      "yes": "Yes",
      "no": "No",
      "unknown": "Unknown"
    }
  },
  {
    "GroupID": "pathology",
    "ID": "menstrating",
    "Text": "Is {noun} menstruating?",
    "Type": "bool",
    "Options": {
      "yes": "Yes",
      "no": "No",
      "unknown": "Unknown"
    }
  },
  {
    "GroupID": "pathology",
    "ID": "urination_problems",
    "Text": "{verb} {noun} experience any of the following while urinating?",
    "Type": "mcq",
    "Options": {
      "back_pain": "Side or back pain",
      "pain_during_urination": "Pain during urination",
      "bloody_urine": "Bloody urine",
      "foul_smelling_urine": "Foul Smelling",
      "none": "None"
    }
  },
  {
    "GroupID": "pathology",
    "ID": "skin_check",
    "Text": "Do you notice any of the following after inspecting {noun}{plural} skin?",
    "Type": "mcq",
    "Options": {
      "minor_cut": "Minor Cut",
      "severe_cut": "Severe Cut",
      "persistent_bleeding": "Persitent Bleeding",
      "burn_or_bite": "Burn or Bite",
      "none": "None"
    }
  },
  {
    "GroupID": "pathology",
    "ID": "swollen_face",
    "Text": "{verb} {noun} have swollen face or neck?",
    "Type": "bool",
    "Options": {
      "yes": "Yes",
      "no": "No",
      "unknown": "Unknown"
    }
  },
  {
    "GroupID": "pathology",
    "ID": "swollen_joints",
    "Text": "{verb} {noun} have swollen or red joints?",
    "Type": "bool",
    "Options": {
      "yes": "Yes",
      "no": "No",
      "unknown": "Unknown"
    }
  },
  {
    "GroupID": "pathology",
    "ID": "youth_symptoms",
    "Text": "{verb} {noun} present with any of the following?",
    "Type": "bool",
    "Options": {
      "yes": "Yes",
      "no": "No",
      "unknown": "Unknown"
    }
  },
  {
    "GroupID": "pathology",
    "ID": "ringworm",
    "Text": "{verb} {noun} have a round itchy red rash with clear center and flaky skin?",
    "Type": "bool",
    "Options": {
      "yes": "Yes",
      "no": "No",
      "unknown": "Unknown"
    }
  },
  {
    "GroupID": "pathology",
    "ID": "chickenpox",
    "Text": "{verb} {noun} have itchy red rash with clear fluid and crust?",
    "Type": "bool",
    "Options": {
      "yes": "Yes",
      "no": "No",
      "unknown": "Unknown"
    }
  },
  {
    "GroupID": "pathology",
    "ID": "itchless_round_rash",
    "Text": "{verb} {noun} have a round red rash that does not itch?",
    "Type": "bool",
    "Options": {
      "yes": "Yes",
      "no": "No",
      "unknown": "Unknown"
    }
  },
  {
    "GroupID": "pathology",
    "ID": "encounter_patient_triage",
    "Text": "Followup Actions",
    "Type": "mcq",
    "Options": {
      "none": "None",
      "referred": "Referred",
      "sent_home": "Sent Home",
      "treated": "Treated onsite",
      "new": "New Assessment"
    }
  },
  {
    "GroupID": "pathology",
    "ID": "acute_youth_symptoms",
    "Text": "Acute Symptoms",
    "Type": "mcq",
    "Options": {
      "other": "Other",
      "minor_cut": "Minor Cut",
      "severe_cut": "Severe Cut",
      "persistent_nasal_bleeding": "Persistent Nasal Bleeding",
      "burn_or_bite": "Burn or Bite",
      "sprain_or_broken_bone": "Possible sprain or broken bone"
    }
  }
]